%YAML 1.1
%TAG !u! tag:unity3d.com,2011:
--- !u!114 &11400000
MonoBehaviour:
  m_ObjectHideFlags: 0
  m_CorrespondingSourceObject: {fileID: 0}
  m_PrefabInstance: {fileID: 0}
  m_PrefabAsset: {fileID: 0}
  m_GameObject: {fileID: 0}
  m_Enabled: 1
  m_EditorHideFlags: 0
  m_Script: {fileID: 11500000, guid: a119886298bbb98478adddd118e04d54, type: 3}
  m_Name: Gun
  m_EditorClassIdentifier: 
  ID: 1
  Name: Gun
  Price: 10
  Icon: {fileID: 21300000, guid: a8bafa73114165949bd1c12db85d7ba0, type: 3}
  Prefab: {fileID: 2713543804429841411, guid: 0d733627aaf4b434192fc93f248353f2, type: 3}
