Library\Bee\artifacts\mvdfrm\UnityEditor.UI.ref.dll_5DAE2CC8CF4B8C9E.mvfrm
Library\Bee\artifacts\mvdfrm\UnityEngine.UI.ref.dll_1A140323D56DB509.mvfrm
Library\Bee\artifacts\mvdfrm\UnityEditor.Graphs.dll_0BAEF9684A7D9763.mvfrm
Library\Bee\artifacts\mvdfrm\UnityEditor.CoreModule.dll_4A40A973EB0A7E31.mvfrm
Library\Bee\artifacts\mvdfrm\UnityEditor.DeviceSimulatorModule.dll_E8BF5D74574B1D60.mvfrm
Library\Bee\artifacts\mvdfrm\UnityEditor.DiagnosticsModule.dll_69860FBA0124F7AE.mvfrm
Library\Bee\artifacts\mvdfrm\UnityEditor.dll_E5F77A03128E7494.mvfrm
Library\Bee\artifacts\mvdfrm\UnityEditor.EditorToolbarModule.dll_58B22C3EA1D95F30.mvfrm
Library\Bee\artifacts\mvdfrm\UnityEditor.GraphViewModule.dll_4D4678E8245CF1C5.mvfrm
Library\Bee\artifacts\mvdfrm\UnityEditor.PresetsUIModule.dll_08ACB1CA26B549CA.mvfrm
Library\Bee\artifacts\mvdfrm\UnityEditor.QuickSearchModule.dll_F49590C759FBF407.mvfrm
Library\Bee\artifacts\mvdfrm\UnityEditor.SceneTemplateModule.dll_7C519CFCA0C60968.mvfrm
Library\Bee\artifacts\mvdfrm\UnityEditor.SceneViewModule.dll_8BF65BF0197FBED3.mvfrm
Library\Bee\artifacts\mvdfrm\UnityEditor.TextCoreFontEngineModule.dll_D45593BC8E07C48F.mvfrm
Library\Bee\artifacts\mvdfrm\UnityEditor.TextCoreTextEngineModule.dll_1C3DCA2E1D8B7DAD.mvfrm
Library\Bee\artifacts\mvdfrm\UnityEditor.UIBuilderModule.dll_A1CF260497156AF9.mvfrm
Library\Bee\artifacts\mvdfrm\UnityEditor.UIElementsModule.dll_2322F89BF20D79CD.mvfrm
Library\Bee\artifacts\mvdfrm\UnityEditor.UIElementsSamplesModule.dll_244F9474C73AA370.mvfrm
Library\Bee\artifacts\mvdfrm\UnityEditor.UnityConnectModule.dll_2B52C9818BC54567.mvfrm
Library\Bee\artifacts\mvdfrm\UnityEngine.AccessibilityModule.dll_AEF70893A13C3105.mvfrm
Library\Bee\artifacts\mvdfrm\UnityEngine.AIModule.dll_B7D54A626DB2F065.mvfrm
Library\Bee\artifacts\mvdfrm\UnityEngine.AndroidJNIModule.dll_A16BE16F3B2CE8A3.mvfrm
Library\Bee\artifacts\mvdfrm\UnityEngine.AnimationModule.dll_1BCBF510FEB9C66B.mvfrm
Library\Bee\artifacts\mvdfrm\UnityEngine.ARModule.dll_71480F65CAD04F2E.mvfrm
Library\Bee\artifacts\mvdfrm\UnityEngine.AssetBundleModule.dll_387EC3B8BC62A8F9.mvfrm
Library\Bee\artifacts\mvdfrm\UnityEngine.AudioModule.dll_83517B7F80E7149D.mvfrm
Library\Bee\artifacts\mvdfrm\UnityEngine.ClothModule.dll_EA39D87A5B03F381.mvfrm
Library\Bee\artifacts\mvdfrm\UnityEngine.ClusterInputModule.dll_AAEF3E973D4D182D.mvfrm
Library\Bee\artifacts\mvdfrm\UnityEngine.ClusterRendererModule.dll_EE6C1FE5C7062AE4.mvfrm
Library\Bee\artifacts\mvdfrm\UnityEngine.ContentLoadModule.dll_D1951CF98AE550E6.mvfrm
Library\Bee\artifacts\mvdfrm\UnityEngine.CoreModule.dll_6D617CC6930FE95C.mvfrm
Library\Bee\artifacts\mvdfrm\UnityEngine.CrashReportingModule.dll_38959E02AFB3EE74.mvfrm
Library\Bee\artifacts\mvdfrm\UnityEngine.DirectorModule.dll_D2E73FD772EBAE79.mvfrm
Library\Bee\artifacts\mvdfrm\UnityEngine.dll_189BC0DB71020179.mvfrm
Library\Bee\artifacts\mvdfrm\UnityEngine.DSPGraphModule.dll_D838A140E54C7F9A.mvfrm
Library\Bee\artifacts\mvdfrm\UnityEngine.GameCenterModule.dll_CBB92B8A016DD994.mvfrm
Library\Bee\artifacts\mvdfrm\UnityEngine.GIModule.dll_501193700961D87F.mvfrm
Library\Bee\artifacts\mvdfrm\UnityEngine.GridModule.dll_4AD298B4AB647F53.mvfrm
Library\Bee\artifacts\mvdfrm\UnityEngine.HotReloadModule.dll_9D14B316D9ECE1ED.mvfrm
Library\Bee\artifacts\mvdfrm\UnityEngine.ImageConversionModule.dll_5A5E1D96492AE2D8.mvfrm
Library\Bee\artifacts\mvdfrm\UnityEngine.IMGUIModule.dll_BBB11AE64718A87E.mvfrm
Library\Bee\artifacts\mvdfrm\UnityEngine.InputLegacyModule.dll_C9C3DED754545EEA.mvfrm
Library\Bee\artifacts\mvdfrm\UnityEngine.InputModule.dll_E9C7432FF71F3941.mvfrm
Library\Bee\artifacts\mvdfrm\UnityEngine.JSONSerializeModule.dll_0F0E91CFA077918F.mvfrm
Library\Bee\artifacts\mvdfrm\UnityEngine.LocalizationModule.dll_E93C08E9D4C90B26.mvfrm
Library\Bee\artifacts\mvdfrm\UnityEngine.ParticleSystemModule.dll_8BA7E74F1DC57A02.mvfrm
Library\Bee\artifacts\mvdfrm\UnityEngine.PerformanceReportingModule.dll_565333D5AF2FDA1B.mvfrm
Library\Bee\artifacts\mvdfrm\UnityEngine.Physics2DModule.dll_6871E5019FB6BE00.mvfrm
Library\Bee\artifacts\mvdfrm\UnityEngine.PhysicsModule.dll_69E58D8D3619250E.mvfrm
Library\Bee\artifacts\mvdfrm\UnityEngine.ProfilerModule.dll_052D790E0C453586.mvfrm
Library\Bee\artifacts\mvdfrm\UnityEngine.PropertiesModule.dll_F8F46AC874593DD0.mvfrm
Library\Bee\artifacts\mvdfrm\UnityEngine.RuntimeInitializeOnLoadManagerInitializerModule.dll_B190262949882EC9.mvfrm
Library\Bee\artifacts\mvdfrm\UnityEngine.ScreenCaptureModule.dll_28F63F54B4E3BDF1.mvfrm
Library\Bee\artifacts\mvdfrm\UnityEngine.SharedInternalsModule.dll_DE6F5C6BC058DE28.mvfrm
Library\Bee\artifacts\mvdfrm\UnityEngine.SpriteMaskModule.dll_B4E59E1A22DD6F0E.mvfrm
Library\Bee\artifacts\mvdfrm\UnityEngine.SpriteShapeModule.dll_51DFF1137204E103.mvfrm
Library\Bee\artifacts\mvdfrm\UnityEngine.StreamingModule.dll_D060E2614E417DA9.mvfrm
Library\Bee\artifacts\mvdfrm\UnityEngine.SubstanceModule.dll_AD0BF6AA99947BB7.mvfrm
Library\Bee\artifacts\mvdfrm\UnityEngine.SubsystemsModule.dll_1F93047BF1255721.mvfrm
Library\Bee\artifacts\mvdfrm\UnityEngine.TerrainModule.dll_842C08FC0BD76DFC.mvfrm
Library\Bee\artifacts\mvdfrm\UnityEngine.TerrainPhysicsModule.dll_8C2290223708748F.mvfrm
Library\Bee\artifacts\mvdfrm\UnityEngine.TextCoreFontEngineModule.dll_52B50F0FA105835A.mvfrm
Library\Bee\artifacts\mvdfrm\UnityEngine.TextCoreTextEngineModule.dll_9A9D458130893C78.mvfrm
Library\Bee\artifacts\mvdfrm\UnityEngine.TextRenderingModule.dll_5235B15F6C1B3DE6.mvfrm
Library\Bee\artifacts\mvdfrm\UnityEngine.TilemapModule.dll_2328707D23944F05.mvfrm
Library\Bee\artifacts\mvdfrm\UnityEngine.TLSModule.dll_339F14D093E68262.mvfrm
Library\Bee\artifacts\mvdfrm\UnityEngine.UIElementsModule.dll_23D165E3F4519318.mvfrm
Library\Bee\artifacts\mvdfrm\UnityEngine.UIModule.dll_B348E88FC9F9F611.mvfrm
Library\Bee\artifacts\mvdfrm\UnityEngine.UmbraModule.dll_FE2627980E0DC010.mvfrm
Library\Bee\artifacts\mvdfrm\UnityEngine.UnityAnalyticsCommonModule.dll_F191F119C9187879.mvfrm
Library\Bee\artifacts\mvdfrm\UnityEngine.UnityAnalyticsModule.dll_AB475818C9ECCBFE.mvfrm
Library\Bee\artifacts\mvdfrm\UnityEngine.UnityConnectModule.dll_18B24D90864D4612.mvfrm
Library\Bee\artifacts\mvdfrm\UnityEngine.UnityCurlModule.dll_4EE896426ECDB858.mvfrm
Library\Bee\artifacts\mvdfrm\UnityEngine.UnityTestProtocolModule.dll_E0124A672135F8C6.mvfrm
Library\Bee\artifacts\mvdfrm\UnityEngine.UnityWebRequestAssetBundleModule.dll_EB6547D0EA5EBD4F.mvfrm
Library\Bee\artifacts\mvdfrm\UnityEngine.UnityWebRequestAudioModule.dll_CE4F87B4359AA4B3.mvfrm
Library\Bee\artifacts\mvdfrm\UnityEngine.UnityWebRequestModule.dll_6BFD2540541F7D57.mvfrm
Library\Bee\artifacts\mvdfrm\UnityEngine.UnityWebRequestTextureModule.dll_A252AAEFEAEA1EE8.mvfrm
Library\Bee\artifacts\mvdfrm\UnityEngine.UnityWebRequestWWWModule.dll_655F8ADD2048F8E4.mvfrm
Library\Bee\artifacts\mvdfrm\UnityEngine.VehiclesModule.dll_4AAA3956ED157E14.mvfrm
Library\Bee\artifacts\mvdfrm\UnityEngine.VFXModule.dll_B47DAD3F6A53EBCF.mvfrm
Library\Bee\artifacts\mvdfrm\UnityEngine.VideoModule.dll_A85AFFEA43793042.mvfrm
Library\Bee\artifacts\mvdfrm\UnityEngine.VirtualTexturingModule.dll_499C235E013A58FA.mvfrm
Library\Bee\artifacts\mvdfrm\UnityEngine.VRModule.dll_061B0F156BB47B89.mvfrm
Library\Bee\artifacts\mvdfrm\UnityEngine.WindModule.dll_E3B057EF244667C5.mvfrm
Library\Bee\artifacts\mvdfrm\UnityEngine.XRModule.dll_38D9D219F4EEC8E7.mvfrm
Library\Bee\artifacts\mvdfrm\Unity.Android.Gradle.dll_C0B0075994B0E099.mvfrm
Library\Bee\artifacts\mvdfrm\Unity.Android.GradleProject.dll_5E93D762C2269BAC.mvfrm
Library\Bee\artifacts\mvdfrm\Unity.Android.Types.dll_63399C34AC380CB3.mvfrm
Library\Bee\artifacts\mvdfrm\UnityEditor.Android.Extensions.dll_CCC69D7FE6966679.mvfrm
Library\Bee\artifacts\mvdfrm\UnityEditor.iOS.Extensions.Common.dll_A019972B73B9F0D6.mvfrm
Library\Bee\artifacts\mvdfrm\UnityEditor.iOS.Extensions.dll_DA76F9B4F764846F.mvfrm
Library\Bee\artifacts\mvdfrm\UnityEditor.iOS.Extensions.Xcode.dll_90056415F406E4D6.mvfrm
Library\Bee\artifacts\mvdfrm\UnityEditor.WindowsStandalone.Extensions.dll_34D55CCD7D9FFF7F.mvfrm
Library\Bee\artifacts\mvdfrm\Unity.Plastic.Antlr3.Runtime.dll_D861B4C23F45CF48.mvfrm
Library\Bee\artifacts\mvdfrm\Unity.Plastic.Newtonsoft.Json.dll_C14F84B577BAB56D.mvfrm
Library\Bee\artifacts\mvdfrm\Unity.VisualScripting.IonicZip.dll_3753AE2E22DD17B6.mvfrm
Library\Bee\artifacts\mvdfrm\Unity.VisualScripting.YamlDotNet.dll_B9EB2E0105A28BA6.mvfrm
Library\Bee\artifacts\mvdfrm\Unity.VisualScripting.TextureAssets.dll_51095754C66FE99E.mvfrm
Library\Bee\artifacts\mvdfrm\Unity.VisualScripting.Antlr3.Runtime.dll_6B5854E2366B9BC5.mvfrm